[   
    { "class": "BasicEventSelection",
      "configs": {
        "m_triggerSelection":"HLT_3g15_loose",
        "m_vertexContainerName": "PrimaryVertices",
        "m_storeTrigDecisions": true,
        "m_applyTriggerCut": false,
        "m_applyGRLCut": true,
        "m_GRLxml":"GoodRunLists/data15_13TeV.periodAllYear_DetStatus-v89-pro21-02_Unknown_PHYS_StandardGRL_All_Good_25ns.xml",
        "m_lumiCalcFileNames":"/cvmfs/atlas.cern.ch/repo/sw/database/GroupData/GoodRunsLists/data15_13TeV/20170619/PHYS_StandardGRL_All_Good_25ns_276262-284484_OflLumi-13TeV-008.root",
        "m_PRWFileNames":"PRWLists/triphoton_NTUP_PILEUP_mc16a_9364_2016.root",
        "m_doPUreweighting": true,
        "m_name": "myBaseEventSel"
      }
    },

    { "class": "PhotonCalibrator",
      "configs": {
        "m_readIDFlagsFromDerivation":true,
        "m_inContainerName":"Photons",
        "m_outContainerName": "Photons_Calibrated",
        "m_name": "myPhotonCalibrator"
      }
    },

    { "class": "PhotonSelector",
      "configs": {
        "m_inContainerName":"Photons_Calibrated",
        "m_outContainerName": "Photons_Selected",
        "m_pT_min":15000,
        "m_pass_min":3,
        "m_name": "myPhotonSelector"
      }
    },

    { "class": "TrigMatcher",
      "configs": {
      "m_inContainerName" : "Photons_Selected",
      "m_trigChains" : "HLT_3g15_loose",
      "m_name": "myTrigMatcher"
      }
    },

    {
      "class": "TreeAlgo",
      "configs": {
        "m_outHistDir":true,
        "m_photonContainerName":"Photons_Selected",
        "m_photonDetailStr": "kinematic rapidity energy isolation PID purity",
        "m_truthParticlesContainerName":"TruthPhotons",
        "m_truthParticlesDetailStr":"kinematic type parents children dressed origin",
        "m_name":"nominal"
      }
    }


  ]
  
